{
 "charts": [
  {
   "chart_name": "Warehouse wise Stock Value"
  }
 ],
 "color": "#f4a261",
 "content": "[{\"type\": \"onboarding\", \"data\": {\"onboarding_name\": \"Stock\", \"col\": 12}}, {\"type\": \"chart\", \"data\": {\"chart_name\": null, \"col\": 12}}, {\"type\": \"spacer\", \"data\": {\"col\": 12}}, {\"type\": \"header\", \"data\": {\"text\": \"Quick Access\", \"level\": 4, \"col\": 12}}, {\"type\": \"shortcut\", \"data\": {\"shortcut_name\": \"Item\", \"col\": 4}}, {\"type\": \"shortcut\", \"data\": {\"shortcut_name\": \"Material Request\", \"col\": 4}}, {\"type\": \"shortcut\", \"data\": {\"shortcut_name\": \"Stock Entry\", \"col\": 4}}, {\"type\": \"shortcut\", \"data\": {\"shortcut_name\": \"Purchase Receipt\", \"col\": 4}}, {\"type\": \"shortcut\", \"data\": {\"shortcut_name\": \"Delivery Note\", \"col\": 4}}, {\"type\": \"shortcut\", \"data\": {\"shortcut_name\": \"Stock Ledger\", \"col\": 4}}, {\"type\": \"shortcut\", \"data\": {\"shortcut_name\": \"Stock Balance\", \"col\": 4}}, {\"type\": \"shortcut\", \"data\": {\"shortcut_name\": \"Dashboard\", \"col\": 4}}, {\"type\": \"spacer\", \"data\": {\"col\": 12}}, {\"type\": \"header\", \"data\": {\"text\": \"Masters & Reports\", \"level\": 4, \"col\": 12}}, {\"type\": \"card\", \"data\": {\"card_name\": \"Items and Pricing\", \"col\": 4}}, {\"type\": \"card\", \"data\": {\"card_name\": \"Stock Transactions\", \"col\": 4}}, {\"type\": \"card\", \"data\": {\"card_name\": \"Stock Reports\", \"col\": 4}}, {\"type\": \"card\", \"data\": {\"card_name\": \"Settings\", \"col\": 4}}, {\"type\": \"card\", \"data\": {\"card_name\": \"Serial No and Batch\", \"col\": 4}}, {\"type\": \"card\", \"data\": {\"card_name\": \"Tools\", \"col\": 4}}, {\"type\": \"card\", \"data\": {\"card_name\": \"Key Reports\", \"col\": 4}}, {\"type\": \"card\", \"data\": {\"card_name\": \"Other Reports\", \"col\": 4}}, {\"type\": \"card\", \"data\": {\"card_name\": \"Incorrect Data Report\", \"col\": 4}}]",
 "creation": "2020-03-02 15:43:10.096528",
 "docstatus": 0,
 "doctype": "Workspace",
 "hidden": 0,
 "hide_custom": 0,
 "icon": "stock",
 "idx": 0,
 "is_standard": 1,
 "label": "Stock",
 "links": [
  {
   "hidden": 0,
   "is_query_report": 0,
   "label": "Items and Pricing",
   "link_count": 0,
   "onboard": 0,
   "type": "Card Break"
  },
  {
   "dependencies": "",
   "hidden": 0,
   "is_query_report": 0,
   "label": "Item",
   "link_count": 0,
   "link_to": "Item",
   "link_type": "DocType",
   "onboard": 1,
   "type": "Link"
  },
  {
   "dependencies": "",
   "hidden": 0,
   "is_query_report": 0,
   "label": "Item Group",
   "link_count": 0,
   "link_to": "Item Group",
   "link_type": "DocType",
   "onboard": 1,
   "type": "Link"
  },
  {
   "dependencies": "",
   "hidden": 0,
   "is_query_report": 0,
   "label": "Product Bundle",
   "link_count": 0,
   "link_to": "Product Bundle",
   "link_type": "DocType",
   "onboard": 1,
   "type": "Link"
  },
  {
   "dependencies": "",
   "hidden": 0,
   "is_query_report": 0,
   "label": "Price List",
   "link_count": 0,
   "link_to": "Price List",
   "link_type": "DocType",
   "onboard": 0,
   "type": "Link"
  },
  {
   "dependencies": "",
   "hidden": 0,
   "is_query_report": 0,
   "label": "Item Price",
   "link_count": 0,
   "link_to": "Item Price",
   "link_type": "DocType",
   "onboard": 0,
   "type": "Link"
  },
  {
   "dependencies": "",
   "hidden": 0,
   "is_query_report": 0,
   "label": "Shipping Rule",
   "link_count": 0,
   "link_to": "Shipping Rule",
   "link_type": "DocType",
   "onboard": 0,
   "type": "Link"
  },
  {
   "dependencies": "",
   "hidden": 0,
   "is_query_report": 0,
   "label": "Pricing Rule",
   "link_count": 0,
   "link_to": "Pricing Rule",
   "link_type": "DocType",
   "onboard": 0,
   "type": "Link"
  },
  {
   "dependencies": "",
   "hidden": 0,
   "is_query_report": 0,
   "label": "Item Alternative",
   "link_count": 0,
   "link_to": "Item Alternative",
   "link_type": "DocType",
   "onboard": 0,
   "type": "Link"
  },
  {
   "dependencies": "",
   "hidden": 0,
   "is_query_report": 0,
   "label": "Item Manufacturer",
   "link_count": 0,
   "link_to": "Item Manufacturer",
   "link_type": "DocType",
   "onboard": 0,
   "type": "Link"
  },
  {
   "dependencies": "",
   "hidden": 0,
   "is_query_report": 0,
   "label": "Customs Tariff Number",
   "link_count": 0,
   "link_to": "Customs Tariff Number",
   "link_type": "DocType",
   "onboard": 0,
   "type": "Link"
  },
  {
   "hidden": 0,
   "is_query_report": 0,
   "label": "Stock Transactions",
   "link_count": 0,
   "onboard": 0,
   "type": "Card Break"
  },
  {
   "dependencies": "Item",
   "hidden": 0,
   "is_query_report": 0,
   "label": "Material Request",
   "link_count": 0,
   "link_to": "Material Request",
   "link_type": "DocType",
   "onboard": 1,
   "type": "Link"
  },
  {
   "dependencies": "Item",
   "hidden": 0,
   "is_query_report": 0,
   "label": "Stock Entry",
   "link_count": 0,
   "link_to": "Stock Entry",
   "link_type": "DocType",
   "onboard": 1,
   "type": "Link"
  },
  {
   "dependencies": "Item, Customer",
   "hidden": 0,
   "is_query_report": 0,
   "label": "Delivery Note",
   "link_count": 0,
   "link_to": "Delivery Note",
   "link_type": "DocType",
   "onboard": 1,
   "type": "Link"
  },
  {
   "dependencies": "Item, Supplier",
   "hidden": 0,
   "is_query_report": 0,
   "label": "Purchase Receipt",
   "link_count": 0,
   "link_to": "Purchase Receipt",
   "link_type": "DocType",
   "onboard": 1,
   "type": "Link"
  },
  {
   "dependencies": "Item",
   "hidden": 0,
   "is_query_report": 0,
   "label": "Pick List",
   "link_count": 0,
   "link_to": "Pick List",
   "link_type": "DocType",
   "onboard": 1,
   "type": "Link"
  },
  {
   "dependencies": "",
   "hidden": 0,
   "is_query_report": 0,
   "label": "Delivery Trip",
   "link_count": 0,
   "link_to": "Delivery Trip",
   "link_type": "DocType",
   "onboard": 0,
   "type": "Link"
  },
  {
   "hidden": 0,
   "is_query_report": 0,
   "label": "Stock Reports",
   "link_count": 0,
   "onboard": 0,
   "type": "Card Break"
  },
  {
   "dependencies": "Item",
   "hidden": 0,
   "is_query_report": 1,
   "label": "Stock Ledger",
   "link_count": 0,
   "link_to": "Stock Ledger",
   "link_type": "Report",
   "onboard": 1,
   "type": "Link"
  },
  {
   "dependencies": "Item",
   "hidden": 0,
   "is_query_report": 1,
   "label": "Stock Balance",
   "link_count": 0,
   "link_to": "Stock Balance",
   "link_type": "Report",
   "onboard": 1,
   "type": "Link"
  },
  {
   "dependencies": "Item",
   "hidden": 0,
   "is_query_report": 1,
   "label": "Stock Projected Qty",
   "link_count": 0,
   "link_to": "Stock Projected Qty",
   "link_type": "Report",
   "onboard": 1,
   "type": "Link"
  },
  {
   "dependencies": "Item",
   "hidden": 0,
   "is_query_report": 0,
   "label": "Stock Summary",
   "link_count": 0,
   "link_to": "stock-balance",
   "link_type": "Page",
   "onboard": 0,
   "type": "Link"
  },
  {
   "dependencies": "Item",
   "hidden": 0,
   "is_query_report": 1,
   "label": "Stock Ageing",
   "link_count": 0,
   "link_to": "Stock Ageing",
   "link_type": "Report",
   "onboard": 0,
   "type": "Link"
  },
  {
   "dependencies": "Item",
   "hidden": 0,
   "is_query_report": 1,
   "label": "Item Price Stock",
   "link_count": 0,
   "link_to": "Item Price Stock",
   "link_type": "Report",
   "onboard": 0,
   "type": "Link"
  },
  {
   "hidden": 0,
   "is_query_report": 0,
   "label": "Settings",
   "link_count": 0,
   "onboard": 0,
   "type": "Card Break"
  },
  {
   "dependencies": "",
   "hidden": 0,
   "is_query_report": 0,
   "label": "Stock Settings",
   "link_count": 0,
   "link_to": "Stock Settings",
   "link_type": "DocType",
   "onboard": 1,
   "type": "Link"
  },
  {
   "dependencies": "",
   "hidden": 0,
   "is_query_report": 0,
   "label": "Warehouse",
   "link_count": 0,
   "link_to": "Warehouse",
   "link_type": "DocType",
   "onboard": 1,
   "type": "Link"
  },
  {
   "dependencies": "",
   "hidden": 0,
   "is_query_report": 0,
   "label": "Unit of Measure (UOM)",
   "link_count": 0,
   "link_to": "UOM",
   "link_type": "DocType",
   "onboard": 1,
   "type": "Link"
  },
  {
   "dependencies": "",
   "hidden": 0,
   "is_query_report": 0,
   "label": "Item Variant Settings",
   "link_count": 0,
   "link_to": "Item Variant Settings",
   "link_type": "DocType",
   "onboard": 1,
   "type": "Link"
  },
  {
   "dependencies": "",
   "hidden": 0,
   "is_query_report": 0,
   "label": "Brand",
   "link_count": 0,
   "link_to": "Brand",
   "link_type": "DocType",
   "onboard": 1,
   "type": "Link"
  },
  {
   "dependencies": "",
   "hidden": 0,
   "is_query_report": 0,
   "label": "Item Attribute",
   "link_count": 0,
   "link_to": "Item Attribute",
   "link_type": "DocType",
   "onboard": 0,
   "type": "Link"
  },
  {
   "dependencies": "",
   "hidden": 0,
   "is_query_report": 0,
   "label": "UOM Conversion Factor",
   "link_count": 0,
   "link_to": "UOM Conversion Factor",
   "link_type": "DocType",
   "onboard": 0,
   "type": "Link"
  },
  {
   "hidden": 0,
   "is_query_report": 0,
   "label": "Serial No and Batch",
   "link_count": 0,
   "onboard": 0,
   "type": "Card Break"
  },
  {
   "dependencies": "Item",
   "hidden": 0,
   "is_query_report": 0,
   "label": "Serial No",
   "link_count": 0,
   "link_to": "Serial No",
   "link_type": "DocType",
   "onboard": 1,
   "type": "Link"
  },
  {
   "dependencies": "Item",
   "hidden": 0,
   "is_query_report": 0,
   "label": "Batch",
   "link_count": 0,
   "link_to": "Batch",
   "link_type": "DocType",
   "onboard": 1,
   "type": "Link"
  },
  {
   "dependencies": "Item",
   "hidden": 0,
   "is_query_report": 0,
   "label": "Installation Note",
   "link_count": 0,
   "link_to": "Installation Note",
   "link_type": "DocType",
   "onboard": 0,
   "type": "Link"
  },
  {
   "dependencies": "Serial No",
   "hidden": 0,
   "is_query_report": 0,
   "label": "Serial No Service Contract Expiry",
   "link_count": 0,
   "link_to": "Serial No Service Contract Expiry",
   "link_type": "Report",
   "onboard": 0,
   "type": "Link"
  },
  {
   "dependencies": "Serial No",
   "hidden": 0,
   "is_query_report": 0,
   "label": "Serial No Status",
   "link_count": 0,
   "link_to": "Serial No Status",
   "link_type": "Report",
   "onboard": 0,
   "type": "Link"
  },
  {
   "dependencies": "Serial No",
   "hidden": 0,
   "is_query_report": 0,
   "label": "Serial No Warranty Expiry",
   "link_count": 0,
   "link_to": "Serial No Warranty Expiry",
   "link_type": "Report",
   "onboard": 0,
   "type": "Link"
  },
  {
   "hidden": 0,
   "is_query_report": 0,
   "label": "Tools",
   "link_count": 0,
   "onboard": 0,
   "type": "Card Break"
  },
  {
   "dependencies": "",
   "hidden": 0,
   "is_query_report": 0,
   "label": "Stock Reconciliation",
   "link_count": 0,
   "link_to": "Stock Reconciliation",
   "link_type": "DocType",
   "onboard": 1,
   "type": "Link"
  },
  {
   "dependencies": "",
   "hidden": 0,
   "is_query_report": 0,
   "label": "Landed Cost Voucher",
   "link_count": 0,
   "link_to": "Landed Cost Voucher",
   "link_type": "DocType",
   "onboard": 1,
   "type": "Link"
  },
  {
   "dependencies": "",
   "hidden": 0,
   "is_query_report": 0,
   "label": "Packing Slip",
   "link_count": 0,
   "link_to": "Packing Slip",
   "link_type": "DocType",
   "onboard": 1,
   "type": "Link"
  },
  {
   "dependencies": "",
   "hidden": 0,
   "is_query_report": 0,
   "label": "Quality Inspection",
   "link_count": 0,
   "link_to": "Quality Inspection",
   "link_type": "DocType",
   "onboard": 0,
   "type": "Link"
  },
  {
   "dependencies": "",
   "hidden": 0,
   "is_query_report": 0,
   "label": "Quality Inspection Template",
   "link_count": 0,
   "link_to": "Quality Inspection Template",
   "link_type": "DocType",
   "onboard": 0,
   "type": "Link"
  },
  {
   "dependencies": "",
   "hidden": 0,
   "is_query_report": 0,
   "label": "Quick Stock Balance",
   "link_count": 0,
   "link_to": "Quick Stock Balance",
   "link_type": "DocType",
   "onboard": 0,
   "type": "Link"
  },
  {
   "hidden": 0,
   "is_query_report": 0,
   "label": "Key Reports",
   "link_count": 0,
   "onboard": 0,
   "type": "Card Break"
  },
  {
   "dependencies": "Item Price",
   "hidden": 0,
   "is_query_report": 0,
   "label": "Item-wise Price List Rate",
   "link_count": 0,
   "link_to": "Item-wise Price List Rate",
   "link_type": "Report",
   "onboard": 1,
   "type": "Link"
  },
  {
   "dependencies": "Stock Entry",
   "hidden": 0,
   "is_query_report": 1,
   "label": "Stock Analytics",
   "link_count": 0,
   "link_to": "Stock Analytics",
   "link_type": "Report",
   "onboard": 1,
   "type": "Link"
  },
  {
   "dependencies": "Item",
   "hidden": 0,
   "is_query_report": 1,
   "label": "Stock Qty vs Serial No Count",
   "link_count": 0,
   "link_to": "Stock Qty vs Serial No Count",
   "link_type": "Report",
   "onboard": 1,
   "type": "Link"
  },
  {
   "dependencies": "Delivery Note",
   "hidden": 0,
   "is_query_report": 1,
   "label": "Delivery Note Trends",
   "link_count": 0,
   "link_to": "Delivery Note Trends",
   "link_type": "Report",
   "onboard": 0,
   "type": "Link"
  },
  {
   "dependencies": "Purchase Receipt",
   "hidden": 0,
   "is_query_report": 1,
   "label": "Purchase Receipt Trends",
   "link_count": 0,
   "link_to": "Purchase Receipt Trends",
   "link_type": "Report",
   "onboard": 0,
   "type": "Link"
  },
  {
   "dependencies": "Sales Order",
   "hidden": 0,
   "is_query_report": 1,
   "label": "Sales Order Analysis",
   "link_count": 0,
   "link_to": "Sales Order Analysis",
   "link_type": "Report",
   "onboard": 0,
   "type": "Link"
  },
  {
   "dependencies": "Purchase Order",
   "hidden": 0,
   "is_query_report": 1,
   "label": "Purchase Order Analysis",
   "link_count": 0,
   "link_to": "Purchase Order Analysis",
   "link_type": "Report",
   "onboard": 0,
   "type": "Link"
  },
  {
   "dependencies": "Bin",
   "hidden": 0,
   "is_query_report": 1,
   "label": "Item Shortage Report",
   "link_count": 0,
   "link_to": "Item Shortage Report",
   "link_type": "Report",
   "onboard": 0,
   "type": "Link"
  },
  {
   "dependencies": "Batch",
   "hidden": 0,
   "is_query_report": 1,
   "label": "Batch-Wise Balance History",
   "link_count": 0,
   "link_to": "Batch-Wise Balance History",
   "link_type": "Report",
   "onboard": 0,
   "type": "Link"
  },
  {
   "hidden": 0,
   "is_query_report": 0,
   "label": "Other Reports",
   "link_count": 0,
   "onboard": 0,
   "type": "Card Break"
  },
  {
   "dependencies": "Material Request",
   "hidden": 0,
   "is_query_report": 1,
   "label": "Requested Items To Be Transferred",
   "link_count": 0,
   "link_to": "Requested Items To Be Transferred",
   "link_type": "Report",
   "onboard": 0,
   "type": "Link"
  },
  {
   "dependencies": "Stock Ledger Entry",
   "hidden": 0,
   "is_query_report": 1,
   "label": "Batch Item Expiry Status",
   "link_count": 0,
   "link_to": "Batch Item Expiry Status",
   "link_type": "Report",
   "onboard": 0,
   "type": "Link"
  },
  {
   "dependencies": "Price List",
   "hidden": 0,
   "is_query_report": 1,
   "label": "Item Prices",
   "link_count": 0,
   "link_to": "Item Prices",
   "link_type": "Report",
   "onboard": 0,
   "type": "Link"
  },
  {
   "dependencies": "Item",
   "hidden": 0,
   "is_query_report": 1,
   "label": "Itemwise Recommended Reorder Level",
   "link_count": 0,
   "link_to": "Itemwise Recommended Reorder Level",
   "link_type": "Report",
   "onboard": 0,
   "type": "Link"
  },
  {
   "dependencies": "Item",
   "hidden": 0,
   "is_query_report": 1,
   "label": "Item Variant Details",
   "link_count": 0,
   "link_to": "Item Variant Details",
   "link_type": "Report",
   "onboard": 0,
   "type": "Link"
  },
  {
   "dependencies": "Purchase Order",
   "hidden": 0,
   "is_query_report": 1,
   "label": "Subcontracted Raw Materials To Be Transferred",
   "link_count": 0,
   "link_to": "Subcontracted Raw Materials To Be Transferred",
   "link_type": "Report",
   "onboard": 0,
   "type": "Link"
  },
  {
   "dependencies": "Purchase Order",
   "hidden": 0,
   "is_query_report": 1,
   "label": "Subcontracted Item To Be Received",
   "link_count": 0,
   "link_to": "Subcontracted Item To Be Received",
   "link_type": "Report",
   "onboard": 0,
   "type": "Link"
  },
  {
   "hidden": 0,
   "is_query_report": 0,
   "label": "Stock and Account Value Comparison",
   "link_count": 0,
   "link_to": "Stock and Account Value Comparison",
   "link_type": "Report",
   "onboard": 0,
   "type": "Link"
  }
 ],
 "modified": "2022-05-20 10:42:09.795068",
 "modified_by": "Administrator",
 "module": "Stock",
 "name": "Stock",
 "owner": "Administrator",
 "parent_page": "",
 "public": 1,
 "quick_lists": [],
 "roles": [],
 "sequence_id": 9.0,
 "shortcuts": [
  {
   "color": "Green",
   "format": "{}  Available",
   "label": "Item",
   "link_to": "Item",
   "stats_filter": "{\n    \"disabled\" : 0\n}",
   "type": "DocType"
  },
  {
   "color": "Yellow",
   "format": "{} Pending",
   "label": "Material Request",
   "link_to": "Material Request",
   "stats_filter": "{\n    \"company\": [\"like\", '%' + frappe.defaults.get_global_default(\"company\") + '%'],\n    \"status\": \"Pending\"\n}",
   "type": "DocType"
  },
  {
   "label": "Stock Entry",
   "link_to": "Stock Entry",
   "type": "DocType"
  },
  {
   "color": "Yellow",
   "format": "{} To Bill",
   "label": "Purchase Receipt",
   "link_to": "Purchase Receipt",
   "stats_filter": "{\n    \"company\": [\"like\", '%' + frappe.defaults.get_global_default(\"company\") + '%'],\n    \"status\": \"To Bill\"\n}",
   "type": "DocType"
  },
  {
   "color": "Yellow",
   "format": "{} To Bill",
   "label": "Delivery Note",
   "link_to": "Delivery Note",
   "stats_filter": "{\n    \"company\": [\"like\", '%' + frappe.defaults.get_global_default(\"company\") + '%'],\n    \"status\": \"To Bill\"\n}",
   "type": "DocType"
  },
  {
   "label": "Stock Ledger",
   "link_to": "Stock Ledger",
   "type": "Report"
  },
  {
   "label": "Stock Balance",
   "link_to": "Stock Balance",
   "type": "Report"
  },
  {
   "label": "Dashboard",
   "link_to": "Stock",
   "type": "Dashboard"
  }
 ],
 "title": "Stock"
}