{
 "charts": [
  {
   "chart_name": "Purchase Order Trends",
   "label": "Purchase Order Trends"
  }
 ],
 "color": "#e76f51",
 "content": "[{\"type\": \"onboarding\", \"data\": {\"onboarding_name\": \"Buying\", \"col\": 12}}, {\"type\": \"chart\", \"data\": {\"chart_name\": \"Purchase Order Trends\", \"col\": 12}}, {\"type\": \"spacer\", \"data\": {\"col\": 12}}, {\"type\": \"header\", \"data\": {\"text\": \"Your Shortcuts\", \"level\": 4, \"col\": 12}}, {\"type\": \"shortcut\", \"data\": {\"shortcut_name\": \"Item\", \"col\": 4}}, {\"type\": \"shortcut\", \"data\": {\"shortcut_name\": \"Material Request\", \"col\": 4}}, {\"type\": \"shortcut\", \"data\": {\"shortcut_name\": \"Purchase Order\", \"col\": 4}}, {\"type\": \"shortcut\", \"data\": {\"shortcut_name\": \"Purchase Analytics\", \"col\": 4}}, {\"type\": \"shortcut\", \"data\": {\"shortcut_name\": \"Purchase Order Analysis\", \"col\": 4}}, {\"type\": \"shortcut\", \"data\": {\"shortcut_name\": \"Dashboard\", \"col\": 4}}, {\"type\": \"spacer\", \"data\": {\"col\": 12}}, {\"type\": \"header\", \"data\": {\"text\": \"Reports &amp; Masters\", \"level\": 4, \"col\": 12}}, {\"type\": \"card\", \"data\": {\"card_name\": \"Buying\", \"col\": 4}}, {\"type\": \"card\", \"data\": {\"card_name\": \"Items & Pricing\", \"col\": 4}}, {\"type\": \"card\", \"data\": {\"card_name\": \"Settings\", \"col\": 4}}, {\"type\": \"card\", \"data\": {\"card_name\": \"Supplier\", \"col\": 4}}, {\"type\": \"card\", \"data\": {\"card_name\": \"Supplier Scorecard\", \"col\": 4}}, {\"type\": \"card\", \"data\": {\"card_name\": \"Key Reports\", \"col\": 4}}, {\"type\": \"card\", \"data\": {\"card_name\": \"Other Reports\", \"col\": 4}}, {\"type\": \"card\", \"data\": {\"card_name\": \"Regional\", \"col\": 4}}]",
 "creation": "2020-01-28 11:50:26.195467",
 "docstatus": 0,
 "doctype": "Workspace",
 "hidden": 0,
 "hide_custom": 0,
 "icon": "buying",
 "idx": 0,
 "is_standard": 1,
 "label": "Buying",
 "links": [
  {
   "columns": 0,
   "hidden": 0,
   "is_query_report": 0,
   "label": "Buying",
   "link_count": 0,
   "onboard": 0,
   "type": "Card Break"
  },
  {
   "columns": 0,
   "dependencies": "Item",
   "hidden": 0,
   "is_query_report": 0,
   "label": "Material Request",
   "link_count": 0,
   "link_to": "Material Request",
   "link_type": "DocType",
   "onboard": 1,
   "type": "Link"
  },
  {
   "columns": 0,
   "dependencies": "Item, Supplier",
   "hidden": 0,
   "is_query_report": 0,
   "label": "Purchase Order",
   "link_count": 0,
   "link_to": "Purchase Order",
   "link_type": "DocType",
   "onboard": 1,
   "type": "Link"
  },
  {
   "columns": 0,
   "dependencies": "Item, Supplier",
   "hidden": 0,
   "is_query_report": 0,
   "label": "Purchase Invoice",
   "link_count": 0,
   "link_to": "Purchase Invoice",
   "link_type": "DocType",
   "onboard": 1,
   "type": "Link"
  },
  {
   "columns": 0,
   "dependencies": "Item, Supplier",
   "hidden": 0,
   "is_query_report": 0,
   "label": "Request for Quotation",
   "link_count": 0,
   "link_to": "Request for Quotation",
   "link_type": "DocType",
   "onboard": 1,
   "type": "Link"
  },
  {
   "columns": 0,
   "dependencies": "Item, Supplier",
   "hidden": 0,
   "is_query_report": 0,
   "label": "Supplier Quotation",
   "link_count": 0,
   "link_to": "Supplier Quotation",
   "link_type": "DocType",
   "onboard": 0,
   "type": "Link"
  },
  {
   "columns": 0,
   "hidden": 0,
   "is_query_report": 0,
   "label": "Items & Pricing",
   "link_count": 0,
   "onboard": 0,
   "type": "Card Break"
  },
  {
   "columns": 0,
   "dependencies": "",
   "hidden": 0,
   "is_query_report": 0,
   "label": "Item",
   "link_count": 0,
   "link_to": "Item",
   "link_type": "DocType",
   "onboard": 1,
   "type": "Link"
  },
  {
   "columns": 0,
   "dependencies": "",
   "hidden": 0,
   "is_query_report": 0,
   "label": "Item Price",
   "link_count": 0,
   "link_to": "Item Price",
   "link_type": "DocType",
   "onboard": 1,
   "type": "Link"
  },
  {
   "columns": 0,
   "dependencies": "",
   "hidden": 0,
   "is_query_report": 0,
   "label": "Price List",
   "link_count": 0,
   "link_to": "Price List",
   "link_type": "DocType",
   "onboard": 1,
   "type": "Link"
  },
  {
   "columns": 0,
   "dependencies": "",
   "hidden": 0,
   "is_query_report": 0,
   "label": "Product Bundle",
   "link_count": 0,
   "link_to": "Product Bundle",
   "link_type": "DocType",
   "onboard": 0,
   "type": "Link"
  },
  {
   "columns": 0,
   "dependencies": "",
   "hidden": 0,
   "is_query_report": 0,
   "label": "Item Group",
   "link_count": 0,
   "link_to": "Item Group",
   "link_type": "DocType",
   "onboard": 0,
   "type": "Link"
  },
  {
   "columns": 0,
   "dependencies": "",
   "hidden": 0,
   "is_query_report": 0,
   "label": "Promotional Scheme",
   "link_count": 0,
   "link_to": "Promotional Scheme",
   "link_type": "DocType",
   "onboard": 0,
   "type": "Link"
  },
  {
   "columns": 0,
   "dependencies": "",
   "hidden": 0,
   "is_query_report": 0,
   "label": "Pricing Rule",
   "link_count": 0,
   "link_to": "Pricing Rule",
   "link_type": "DocType",
   "onboard": 0,
   "type": "Link"
  },
  {
   "columns": 0,
   "hidden": 0,
   "is_query_report": 0,
   "label": "Settings",
   "link_count": 0,
   "onboard": 0,
   "type": "Card Break"
  },
  {
   "columns": 0,
   "dependencies": "",
   "hidden": 0,
   "is_query_report": 0,
   "label": "Buying Settings",
   "link_count": 0,
   "link_to": "Buying Settings",
   "link_type": "DocType",
   "onboard": 0,
   "type": "Link"
  },
  {
   "columns": 0,
   "dependencies": "",
   "hidden": 0,
   "is_query_report": 0,
   "label": "Purchase Taxes and Charges Template",
   "link_count": 0,
   "link_to": "Purchase Taxes and Charges Template",
   "link_type": "DocType",
   "onboard": 0,
   "type": "Link"
  },
  {
   "columns": 0,
   "dependencies": "",
   "hidden": 0,
   "is_query_report": 0,
   "label": "Terms and Conditions Template",
   "link_count": 0,
   "link_to": "Terms and Conditions",
   "link_type": "DocType",
   "onboard": 0,
   "type": "Link"
  },
  {
   "columns": 0,
   "hidden": 0,
   "is_query_report": 0,
   "label": "Supplier",
   "link_count": 0,
   "onboard": 0,
   "type": "Card Break"
  },
  {
   "columns": 0,
   "dependencies": "",
   "hidden": 0,
   "is_query_report": 0,
   "label": "Supplier",
   "link_count": 0,
   "link_to": "Supplier",
   "link_type": "DocType",
   "onboard": 1,
   "type": "Link"
  },
  {
   "columns": 0,
   "dependencies": "",
   "hidden": 0,
   "is_query_report": 0,
   "label": "Supplier Group",
   "link_count": 0,
   "link_to": "Supplier Group",
   "link_type": "DocType",
   "onboard": 0,
   "type": "Link"
  },
  {
   "columns": 0,
   "dependencies": "",
   "hidden": 0,
   "is_query_report": 0,
   "label": "Contact",
   "link_count": 0,
   "link_to": "Contact",
   "link_type": "DocType",
   "onboard": 0,
   "type": "Link"
  },
  {
   "columns": 0,
   "dependencies": "",
   "hidden": 0,
   "is_query_report": 0,
   "label": "Address",
   "link_count": 0,
   "link_to": "Address",
   "link_type": "DocType",
   "onboard": 0,
   "type": "Link"
  },
  {
   "columns": 0,
   "hidden": 0,
   "is_query_report": 0,
   "label": "Supplier Scorecard",
   "link_count": 0,
   "onboard": 0,
   "type": "Card Break"
  },
  {
   "columns": 0,
   "dependencies": "",
   "hidden": 0,
   "is_query_report": 0,
   "label": "Supplier Scorecard",
   "link_count": 0,
   "link_to": "Supplier Scorecard",
   "link_type": "DocType",
   "onboard": 0,
   "type": "Link"
  },
  {
   "columns": 0,
   "dependencies": "",
   "hidden": 0,
   "is_query_report": 0,
   "label": "Supplier Scorecard Variable",
   "link_count": 0,
   "link_to": "Supplier Scorecard Variable",
   "link_type": "DocType",
   "onboard": 0,
   "type": "Link"
  },
  {
   "columns": 0,
   "dependencies": "",
   "hidden": 0,
   "is_query_report": 0,
   "label": "Supplier Scorecard Criteria",
   "link_count": 0,
   "link_to": "Supplier Scorecard Criteria",
   "link_type": "DocType",
   "onboard": 0,
   "type": "Link"
  },
  {
   "columns": 0,
   "dependencies": "",
   "hidden": 0,
   "is_query_report": 0,
   "label": "Supplier Scorecard Standing",
   "link_count": 0,
   "link_to": "Supplier Scorecard Standing",
   "link_type": "DocType",
   "onboard": 0,
   "type": "Link"
  },
  {
   "columns": 0,
   "hidden": 0,
   "is_query_report": 0,
   "label": "Key Reports",
   "link_count": 0,
   "onboard": 0,
   "type": "Card Break"
  },
  {
   "columns": 0,
   "dependencies": "",
   "hidden": 0,
   "is_query_report": 1,
   "label": "Purchase Analytics",
   "link_count": 0,
   "link_to": "Purchase Analytics",
   "link_type": "Report",
   "onboard": 1,
   "type": "Link"
  },
  {
   "columns": 0,
   "dependencies": "",
   "hidden": 0,
   "is_query_report": 1,
   "label": "Purchase Order Analysis",
   "link_count": 0,
   "link_to": "Purchase Order Analysis",
   "link_type": "Report",
   "onboard": 1,
   "type": "Link"
  },
  {
   "columns": 0,
   "dependencies": "",
   "hidden": 0,
   "is_query_report": 1,
   "label": "Supplier-Wise Sales Analytics",
   "link_count": 0,
   "link_to": "Supplier-Wise Sales Analytics",
   "link_type": "Report",
   "onboard": 1,
   "type": "Link"
  },
  {
   "columns": 0,
   "dependencies": "",
   "hidden": 0,
   "is_query_report": 1,
   "label": "Items to Order and Receive",
   "link_count": 0,
   "link_to": "Requested Items to Order and Receive",
   "link_type": "Report",
   "onboard": 1,
   "type": "Link"
  },
  {
   "columns": 0,
   "dependencies": "",
   "hidden": 0,
   "is_query_report": 1,
   "label": "Purchase Order Trends",
   "link_count": 0,
   "link_to": "Purchase Order Trends",
   "link_type": "Report",
   "onboard": 1,
   "type": "Link"
  },
  {
   "columns": 0,
   "dependencies": "",
   "hidden": 0,
   "is_query_report": 1,
   "label": "Procurement Tracker",
   "link_count": 0,
   "link_to": "Procurement Tracker",
   "link_type": "Report",
   "onboard": 1,
   "type": "Link"
  },
  {
   "columns": 0,
   "hidden": 0,
   "is_query_report": 0,
   "label": "Other Reports",
   "link_count": 0,
   "onboard": 0,
   "type": "Card Break"
  },
  {
   "columns": 0,
   "dependencies": "",
   "hidden": 0,
   "is_query_report": 1,
   "label": "Items To Be Requested",
   "link_count": 0,
   "link_to": "Items To Be Requested",
   "link_type": "Report",
   "onboard": 1,
   "type": "Link"
  },
  {
   "columns": 0,
   "dependencies": "",
   "hidden": 0,
   "is_query_report": 1,
   "label": "Item-wise Purchase History",
   "link_count": 0,
   "link_to": "Item-wise Purchase History",
   "link_type": "Report",
   "onboard": 1,
   "type": "Link"
  },
  {
   "columns": 0,
   "dependencies": "",
   "hidden": 0,
   "is_query_report": 1,
   "label": "Purchase Receipt Trends",
   "link_count": 0,
   "link_to": "Purchase Receipt Trends",
   "link_type": "Report",
   "onboard": 0,
   "type": "Link"
  },
  {
   "columns": 0,
   "dependencies": "",
   "hidden": 0,
   "is_query_report": 1,
   "label": "Purchase Invoice Trends",
   "link_count": 0,
   "link_to": "Purchase Invoice Trends",
   "link_type": "Report",
   "onboard": 0,
   "type": "Link"
  },
  {
   "columns": 0,
   "dependencies": "",
   "hidden": 0,
   "is_query_report": 1,
   "label": "Subcontracted Raw Materials To Be Transferred",
   "link_count": 0,
   "link_to": "Subcontracted Raw Materials To Be Transferred",
   "link_type": "Report",
   "onboard": 0,
   "type": "Link"
  },
  {
   "columns": 0,
   "dependencies": "",
   "hidden": 0,
   "is_query_report": 1,
   "label": "Subcontracted Item To Be Received",
   "link_count": 0,
   "link_to": "Subcontracted Item To Be Received",
   "link_type": "Report",
   "onboard": 0,
   "type": "Link"
  },
  {
   "columns": 0,
   "dependencies": "",
   "hidden": 0,
   "is_query_report": 1,
   "label": "Supplier Quotation Comparison",
   "link_count": 0,
   "link_to": "Supplier Quotation Comparison",
   "link_type": "Report",
   "onboard": 1,
   "type": "Link"
  },
  {
   "columns": 0,
   "dependencies": "",
   "hidden": 0,
   "is_query_report": 1,
   "label": "Material Requests for which Supplier Quotations are not created",
   "link_count": 0,
   "link_to": "Material Requests for which Supplier Quotations are not created",
   "link_type": "Report",
   "onboard": 0,
   "type": "Link"
  },
  {
   "columns": 0,
   "dependencies": "",
   "hidden": 0,
   "is_query_report": 1,
   "label": "Supplier Addresses And Contacts",
   "link_count": 0,
   "link_to": "Address And Contacts",
   "link_type": "Report",
   "onboard": 0,
   "type": "Link"
  },
  {
   "columns": 0,
   "hidden": 0,
   "is_query_report": 0,
   "label": "Regional",
   "link_count": 0,
   "onboard": 0,
   "type": "Card Break"
  },
  {
   "columns": 0,
   "dependencies": "",
   "hidden": 0,
   "is_query_report": 0,
   "label": "Import Supplier Invoice",
   "link_count": 0,
   "link_to": "Import Supplier Invoice",
   "link_type": "DocType",
   "onboard": 0,
   "only_for": "Italy",
   "type": "Link"
  }
 ],
 "modified": "2022-06-13 15:52:48.792154",
 "modified_by": "Administrator",
 "module": "Buying",
 "name": "Buying",
 "owner": "Administrator",
 "parent_page": "",
 "public": 1,
 "quick_lists": [],
 "roles": [],
 "sequence_id": 5.0,
 "shortcuts": [
  {
   "color": "Green",
   "columns": 0,
   "format": "{} Available",
   "label": "Item",
   "link_to": "Item",
   "stats_filter": "{\n    \"disabled\": 0\n}",
   "type": "DocType"
  },
  {
   "color": "Yellow",
   "columns": 0,
   "format": "{} Pending",
   "label": "Material Request",
   "link_to": "Material Request",
   "stats_filter": "{\n    \"company\": [\"like\", '%' + frappe.defaults.get_global_default(\"company\") + '%'],\n    \"status\": \"Pending\"\n}",
   "type": "DocType"
  },
  {
   "color": "Yellow",
   "columns": 0,
   "format": "{}  To Receive",
   "label": "Purchase Order",
   "link_to": "Purchase Order",
   "stats_filter": "{\n    \"company\": [\"like\", '%' + frappe.defaults.get_global_default(\"company\") + '%'],\n    \"status\":[\"in\", [\"To Receive\", \"To Receive and Bill\"]]\n}",
   "type": "DocType"
  },
  {
   "columns": 0,
   "label": "Purchase Analytics",
   "link_to": "Purchase Analytics",
   "type": "Report"
  },
  {
   "columns": 0,
   "label": "Purchase Order Analysis",
   "link_to": "Purchase Order Analysis",
   "type": "Report"
  },
  {
   "columns": 0,
   "label": "Dashboard",
   "link_to": "Buying",
   "type": "Dashboard"
  }
 ],
 "title": "Buying"
}
